<?xml version="1.0" encoding="UTF-8" standalone="no"?>
<!-- Uploaded to: SVG Repo, www.svgrepo.com, Generator: SVG Repo Mixer Tools -->

<svg
   xmlns:dc="http://purl.org/dc/elements/1.1/"
   xmlns:cc="http://creativecommons.org/ns#"
   xmlns:rdf="http://www.w3.org/1999/02/22-rdf-syntax-ns#"
   xmlns:svg="http://www.w3.org/2000/svg"
   xmlns="http://www.w3.org/2000/svg"
   xmlns:sodipodi="http://sodipodi.sourceforge.net/DTD/sodipodi-0.dtd"
   xmlns:inkscape="http://www.inkscape.org/namespaces/inkscape"
   height="828.31641"
   width="1007.9932"
   version="1.1"
   id="Layer_1"
   viewBox="0 0 637.55568 523.91013"
   xml:space="preserve"
   sodipodi:docname="gomme.svg"
   inkscape:version="0.92.5 (2060ec1f9f, 2020-04-08)"><metadata
   id="metadata23"><rdf:RDF><cc:Work
       rdf:about=""><dc:format>image/svg+xml</dc:format><dc:type
         rdf:resource="http://purl.org/dc/dcmitype/StillImage" /><dc:title></dc:title></cc:Work></rdf:RDF></metadata><defs
   id="defs21" /><sodipodi:namedview
   pagecolor="#ffffff"
   bordercolor="#666666"
   borderopacity="1"
   objecttolerance="10"
   gridtolerance="10"
   guidetolerance="10"
   inkscape:pageopacity="0"
   inkscape:pageshadow="2"
   inkscape:window-width="1398"
   inkscape:window-height="851"
   id="namedview19"
   showgrid="false"
   fit-margin-top="0"
   fit-margin-left="0"
   fit-margin-right="0"
   fit-margin-bottom="0"
   inkscape:zoom="0.417193"
   inkscape:cx="556.18973"
   inkscape:cy="205.87803"
   inkscape:window-x="42"
   inkscape:window-y="25"
   inkscape:window-maximized="1"
   inkscape:current-layer="Layer_1" />








<g
   style="fill:none"
   id="g841"
   transform="matrix(-32.734838,0,0,-32.734838,702.94893,654.77312)"><path
     id="path830"
     d="m 7,9.5 5,5 m 0,-5 -5,5 m 12.4922,-0.5454 -2.9314,3.8 c -0.3526,0.4569 -0.5288,0.6854 -0.7501,0.8501 -0.1961,0.1458 -0.4172,0.2545 -0.6524,0.3206 C 14.8928,19 14.6042,19 14.0271,19 H 6.2 C 5.07989,19 4.51984,19 4.09202,18.782 3.71569,18.5903 3.40973,18.2843 3.21799,17.908 3,17.4802 3,16.9201 3,15.8 V 8.2 C 3,7.0799 3,6.51984 3.21799,6.09202 3.40973,5.71569 3.71569,5.40973 4.09202,5.21799 4.51984,5 5.07989,5 6.2,5 h 7.8271 c 0.5771,0 0.8657,0 1.1312,0.07467 0.2352,0.06614 0.4563,0.17483 0.6524,0.32067 0.2213,0.16464 0.3975,0.39312 0.7501,0.85009 l 2.9314,3.79997 c 0.5396,0.6995 0.8094,1.0493 0.9132,1.435 0.0915,0.3403 0.0915,0.6989 0,1.0392 -0.1038,0.3857 -0.3736,0.7355 -0.9132,1.435 z"
     inkscape:connector-curvature="0"
     style="stroke:#000000;stroke-width:2;stroke-linecap:round;stroke-linejoin:round" /></g></svg>